#define SQUARE_width 10
#define SQUARE_height 20
static unsigned char SQUARE_bits[] = {
   0xfc, 0x03, 0x02, 0x00, 0x01, 0x00, 0x01, 0x00, 0x01, 0x00, 0x21, 0x00,
   0x51, 0x00, 0x89, 0x00, 0x05, 0x01, 0x03, 0x02, 0x05, 0x01, 0x89, 0x00,
   0x51, 0x00, 0x21, 0x00, 0x01, 0x00, 0x01, 0x00, 0x01, 0x00, 0x01, 0x00,
   0x02, 0x00, 0xfc, 0x03 };
